....................
----------------------------------------------------------------------
Ran 20 tests in 0.032s

OK
Name             Stmts   Miss Branch BrPart  Cover   Missing
------------------------------------------------------------
Collatz.py          53      0     30      1    99%   56->63
TestCollatz.py      82      0      0      0   100%
------------------------------------------------------------
TOTAL              135      0     30      1    99%
